…
> head(select(chicago, pm25, pm25detrend))
      pm25 pm25detrend
1 15.00000   -1.230958
2 15.05714   -1.173815
3  7.45000   -8.780958
4 17.75000    1.519042
5 23.56000    7.329042
6  8.40000   -7.830958
> 
> chicago <- mutate(chicago, tempcat=factor(1*(tmpd>80), labels=c("cold","hot")) )
> hotcold <- group_by(chicago, tempcat)
Warning message:
Factor `tempcat` contains implicit NA, consider using `forcats::fct_explicit_na` 
> hotcold
# A tibble: 6,940 x 10
# Groups:   tempcat [3]
   city   tmpd dewpoint date        pm25 pm10tmean2 o3tmean2 no2tmean2 pm25detrend tempcat
   <chr> <dbl>    <dbl> <date>     <dbl>      <dbl>    <dbl>     <dbl>       <dbl> <fct>  
 1 chic     35     30.1 2005-12-31 15          23.5     2.53      13.2       -1.23 cold   
 2 chic     36     31   2005-12-30 15.1        19.2     3.03      22.8       -1.17 cold   
 3 chic     35     29.4 2005-12-29  7.45       23.5     6.79      20.0       -8.78 cold   
 4 chic     37     34.5 2005-12-28 17.8        27.5     3.26      19.3        1.52 cold   
 5 chic     40     33.6 2005-12-27 23.6        27       4.47      23.5        7.33 cold   
 6 chic     35     29.6 2005-12-26  8.4         8.5    14.0       16.8       -7.83 cold   
 7 chic     35     32.1 2005-12-25  6.7         8      14.4       13.8       -9.53 cold   
 8 chic     37     35.2 2005-12-24 30.8        25.2     1.77      32.0       14.5  cold   
 9 chic     41     32.6 2005-12-23 32.9        34.5     6.91      29.1       16.7  cold   
10 chic     22     23.3 2005-12-22 36.6        42.5     5.39      33.7       20.4  cold   
# ... with 6,930 more rows
…
